﻿{
    "PlayerInitialPositionX": 88,
    "PlayerInitialPositionY": 160,
    "Barrels": [
        {
            "Id": "barrel1",
            "TilePosX": 4,
            "TilePosY": 10,
            "IsUpright": false
        },
        {
            "Id": "barrel2",
            "TilePosX": 6,
            "TilePosY": 10,
            "IsUpright": false
        },
        {
            "Id": "barrel3",
            "TilePosX": 14,
            "TilePosY": 10,
            "IsUpright": false
        },
        {
            "Id": "barrel4",
            "TilePosX": 16,
            "TilePosY": 10,
            "IsUpright": false
        },
        {
            "Id": "barrel5",
            "TilePosX": 9,
            "TilePosY": 13,
            "IsUpright": false
        },
        {
            "Id": "barrel6",
            "TilePosX": 11,
            "TilePosY": 13,
            "IsUpright": false
        }
    ]

}